{
  "project_info": {
    "project_number": "296780201640",
    "firebase_url": "https://prazos-loja.firebaseio.com",
    "project_id": "prazos-loja",
    "storage_bucket": "prazos-loja.appspot.com"
  },
  "client": [
    {
      "client_info": {
        "mobilesdk_app_id": "1:296780201640:android:902a540171973e04",
        "android_client_info": {
          "package_name": "com.kishannareshpal.prazos"
        }
      },
      "oauth_client": [
        {
          "client_id": "296780201640-t6qfqo96t7mf3lha82ha6c7qug4hng18.apps.googleusercontent.com",
          "client_type": 3
        }
      ],
      "api_key": [
        {
          "current_key": "AIzaSyBy0CXWm47EJTRjrBKzxWG7D702udQtOyE"
        }
      ],
      "services": {
        "analytics_service": {
          "status": 1
        },
        "appinvite_service": {
          "status": 1,
          "other_platform_oauth_client": []
        },
        "ads_service": {
          "status": 2
        }
      }
    }
  ],
  "configuration_version": "1"
}